<svg width="24" height="24" viewBox="0 0 24 24" fill="none" xmlns="http://www.w3.org/2000/svg">
<path fill-rule="evenodd" clip-rule="evenodd" d="M2 0H0V2V6H2V2H6V0H2Z" fill="white"/>
<path fill-rule="evenodd" clip-rule="evenodd" d="M22 0H24V2V6H22V2H18V0H22Z" fill="white"/>
<path fill-rule="evenodd" clip-rule="evenodd" d="M22 24H24V22V18H22V22H18V24H22Z" fill="white"/>
<path fill-rule="evenodd" clip-rule="evenodd" d="M2 24H0V22V18H2V22H6V24H2Z" fill="white"/>
<path d="M12 4L4 6.96301V17.0332L12 19.9962L20 17.0332V6.96301L12 4ZM12 9.46289L6.42456 7.39795L12 5.33301L17.5754 7.39795L12 9.46289ZM5.25 8.2959L7.625 9.17554L8.875 9.63855L11.375 10.5645V18.4316L5.25 16.1632V8.2959ZM12.625 18.4316V10.5645L18.75 8.2959V16.1632L12.625 18.4316Z" fill="white"/>
</svg>
