<svg width="180" height="71" viewBox="0 0 180 71" fill="none" xmlns="http://www.w3.org/2000/svg">
<g clip-path="url(#clip0)">
<path d="M17.3407 50.1565C17.3407 50.1565 17.2294 50.4904 17.034 51.0754L16.672 52.1301L16.1837 53.4745C15.4586 55.4411 14.4173 58.0928 13.2505 60.7094C12.0896 63.2977 10.8032 65.8878 9.78129 67.8279C8.76132 69.7388 8.02752 70.9999 8.02752 70.9999C8.02752 70.9999 7.3707 69.6867 6.46599 67.7182C6.24416 67.2264 6.00377 66.6919 5.74996 66.1298C5.50049 65.5586 5.24313 64.95 4.98262 64.3243C4.46158 63.0715 3.93107 61.7365 3.42858 60.4039C2.41769 57.7616 1.54535 55.0207 0.94734 53.0084C0.345779 50.987 0 49.6481 0 49.6481L2.68966 49.971L3.31885 50.0467L3.9962 50.0977L5.45865 50.2106C6.47073 50.3112 7.5582 50.329 8.64409 50.3684C9.18723 50.3799 9.72919 50.4245 10.2648 50.4111L11.837 50.3984L13.307 50.3866L14.6238 50.3203L16.595 50.2244L17.3407 50.1565Z" fill="#40BFB4"/>
<path d="M34.8045 46.8018C34.8045 46.8018 34.6734 48.19 34.4015 50.2967C34.3296 50.8236 34.2511 51.3948 34.1686 51.9987C34.0739 52.5959 33.974 53.2255 33.8706 53.8768C33.6539 55.1826 33.3993 56.5823 33.1178 57.9883C32.9773 58.6913 32.8305 59.3959 32.6801 60.091C32.5297 60.7861 32.3698 61.4504 32.2127 62.1041C31.8969 63.4102 31.5812 64.6343 31.295 65.6858C31.0088 66.7373 30.7582 67.6164 30.5782 68.2326L30.2908 69.1965C30.2908 69.1965 29.362 68.0518 28.0452 66.315C26.7284 64.5782 25.0453 62.2738 23.4719 59.8573C21.893 57.455 20.4428 55.0764 19.4019 53.205C18.361 51.3553 17.72 50.1186 17.72 50.1186L18.466 50.0511L19.3226 49.9746L19.8491 49.928L20.4306 49.849L23.1996 49.4827L26.3546 48.9329L29.4852 48.2575C30.4783 48.0171 31.3976 47.7621 32.1902 47.562C32.986 47.371 33.6306 47.1503 34.0881 47.0157L34.8045 46.8018Z" fill="#F5D73D"/>
<path d="M51.0581 39.726C51.0581 39.726 51.2393 41.098 51.4402 43.1995C51.5401 44.2499 51.6431 45.4838 51.7299 46.8188C51.8227 48.1644 51.8685 49.5534 51.9056 50.9863C51.9735 53.8315 51.9383 56.7579 51.8266 58.9049C51.7256 61.0707 51.6087 62.5363 51.6087 62.5363L50.8256 61.9146C50.3275 61.5124 49.6312 60.9618 48.7932 60.2465C47.1199 58.8322 44.9584 56.9147 42.9141 54.9521C40.8473 52.9481 38.8942 50.8943 37.4851 49.3407C36.7813 48.571 36.1987 47.8932 35.7972 47.4278L35.17 46.6909L35.8868 46.4738C36.3431 46.3352 36.9798 46.0937 37.7519 45.8284L38.9965 45.3942C39.4394 45.2434 39.8901 45.0433 40.3658 44.8594C41.3104 44.4757 42.3339 44.1023 43.316 43.6357C45.3141 42.7776 47.2466 41.7884 48.6897 41.0384L51.0581 39.726Z" fill="#EB4747"/>
<path d="M65.2769 29.1429L65.6081 30.0508C65.8149 30.6291 66.1173 31.4718 66.4401 32.4622C67.0974 34.454 67.9219 37.1653 68.6467 39.9517C69.3469 42.6978 69.9492 45.5232 70.3562 47.6765C70.5654 48.758 70.7012 49.6355 70.8058 50.2671C70.9041 50.8959 70.9605 51.2539 70.9605 51.2539C70.9605 51.2539 69.6283 50.6334 67.6938 49.6537C65.7707 48.6929 63.2069 47.281 60.7648 45.8193C59.5368 45.0808 58.3502 44.3564 57.2257 43.6128C56.1066 42.879 55.0839 42.1815 54.219 41.5764C52.4902 40.3662 51.3853 39.5321 51.3853 39.5321L53.6952 38.1174C55.0586 37.2317 56.872 36.0372 58.6037 34.7228C59.493 34.0983 60.3223 33.3918 61.1216 32.759C61.5163 32.4357 61.9111 32.1421 62.262 31.831L63.2539 30.9626C63.8653 30.4219 64.3895 29.9873 64.7345 29.66L65.2769 29.1429Z" fill="#563399"/>
<path d="M76.8621 15.6516C76.8621 15.6516 77.6223 16.8188 78.7173 18.6361C79.8324 20.4641 81.1867 22.8992 82.4995 25.4562C83.8262 28.0164 85.0021 30.6141 85.8642 32.6185C86.7263 34.6229 87.2635 35.9918 87.2635 35.9918L86.283 35.7668C85.6585 35.6196 84.7696 35.4056 83.7141 35.1352C82.6586 34.8649 81.4369 34.5376 80.145 34.1686C79.4972 33.9819 78.8396 33.7924 78.1615 33.5816C77.4834 33.3708 76.7969 33.1506 76.116 32.9264C74.7538 32.4779 73.411 32.0098 72.1688 31.5551L70.3878 30.8884L68.7919 30.2525C66.825 29.4504 65.5528 28.8804 65.5528 28.8804L66.0959 28.3645C66.4382 28.033 66.9485 27.581 67.5067 26.983C68.0715 26.3909 68.7465 25.7199 69.4452 24.9726C70.1249 24.2092 70.8504 23.3937 71.5767 22.5814L73.6099 20.1073L75.2934 17.8783L75.6487 17.4105L75.9487 16.9763L76.4373 16.269L76.8621 15.6516Z" fill="#40BFB4"/>
<path d="M85.184 0C85.184 0 86.1784 0.960761 87.6412 2.47927C89.097 3.99265 91.0516 6.10245 92.8516 8.28489C93.7634 9.37906 94.6634 10.4989 95.4962 11.5694C95.9119 12.1046 96.3145 12.6284 96.6887 13.127L97.7178 14.533C98.9848 16.2903 99.8035 17.5092 99.8035 17.5092C99.8035 17.5092 98.343 17.5262 96.1791 17.4721C93.9872 17.4046 91.0998 17.2471 88.2755 16.9819C85.4233 16.7056 82.6033 16.3065 80.535 15.9682L79.125 15.7314L78.0285 15.5265L77.078 15.3406L77.5055 14.7256L78.5606 13.0579L79.2671 11.9452C79.5008 11.5402 79.7471 11.1131 80.0021 10.6718L80.788 9.30999C81.0643 8.85053 81.2921 8.35712 81.5494 7.87871C82.0503 6.9144 82.5702 5.95917 82.9811 5.0284L83.604 3.70055L83.8937 3.08636C83.9776 2.88373 84.0589 2.68874 84.1376 2.50137L85.184 0Z" fill="#F5D73D"/>
<circle cx="47.9064" cy="15.9688" r="1.9961" fill="#5282E0"/>
<circle cx="25.9493" cy="26.9474" r="1.9961" fill="#EB4747"/>
<circle cx="31.9376" cy="8.98243" r="1.9961" fill="#F5D73D"/>
</g>
<circle cx="178" cy="21" r="2" transform="rotate(-180 178 21)" fill="#EB4747"/>
<circle cx="153" cy="19" r="4" transform="rotate(-180 153 19)" fill="#5282E0"/>
<circle cx="170" cy="4" r="4" transform="rotate(-180 170 4)" fill="#F5D73D"/>
<circle r="2" transform="matrix(-1 0 0 1 135 49)" fill="#EB4747"/>
<circle r="4" transform="matrix(-1 0 0 1 110 51)" fill="#5282E0"/>
<circle r="4" transform="matrix(-1 0 0 1 127 66)" fill="#F5D73D"/>
<defs>
<clipPath id="clip0">
<rect width="99.8051" height="71" fill="white"/>
</clipPath>
</defs>
</svg>
