<svg width="48" height="48" viewBox="0 0 48 48" fill="none" xmlns="http://www.w3.org/2000/svg">
<g clip-path="url(#clip0)">
<path d="M48 22.3358L24.0146 36.3337L0.0297227 22.3358C0.0291098 22.3229 0.0303632 22.31 0.0334409 22.2975C0.0530836 22.2087 1.37711 21.1148 3.39607 19.4914C3.41518 19.4761 3.4311 19.4609 3.44915 19.4451C10.0719 14.1235 24.013 3.22534 24.013 3.22534C24.013 3.22534 37.9546 14.1235 44.5774 19.4451C46.6276 21.0917 47.975 22.2045 47.9947 22.2975C47.9983 22.3099 48.0001 22.3228 48 22.3358Z" fill="#7A4C08"/>
<path d="M40.6897 3.35093H23.7662C23.3872 3.351 23.0121 3.42492 22.662 3.56849C22.312 3.71205 21.9939 3.92245 21.726 4.18765C21.4582 4.45286 21.2457 4.76768 21.1008 5.11415C20.9558 5.46062 20.8812 5.83195 20.8813 6.20694V18.3686C21.0479 18.3652 21.2135 18.3948 21.3684 18.4555C21.5233 18.5163 21.6645 18.607 21.7835 18.7224C21.9025 18.8378 21.9971 18.9755 22.0616 19.1276C22.1262 19.2796 22.1595 19.4428 22.1595 19.6078C22.1595 19.7727 22.1262 19.9359 22.0616 20.0879C21.9971 20.24 21.9025 20.3777 21.7835 20.4931C21.6645 20.6085 21.5233 20.6992 21.3684 20.76C21.2135 20.8207 21.0479 20.8503 20.8813 20.8469V38.8488C21.4313 38.9314 21.9886 38.992 22.5531 39.0306C23.0252 39.0631 23.5016 39.0794 23.9822 39.0794C24.5899 39.0794 25.1916 39.0535 25.7872 39.0017C26.5451 38.9363 27.2987 38.8291 28.0446 38.6807C28.6222 38.5658 29.1906 38.4271 29.7498 38.2645C30.5175 38.0424 31.2713 37.7754 32.0071 37.4649C36.2056 35.6891 39.6875 32.581 41.9039 28.6305C42.5984 27.3928 43.1588 26.0859 43.5756 24.7316V20.8469C43.4089 20.8503 43.2433 20.8207 43.0883 20.76C42.9333 20.6992 42.7921 20.6084 42.6731 20.493C42.554 20.3775 42.4594 20.2397 42.3948 20.0876C42.3302 19.9355 42.2969 19.7722 42.2969 19.6072C42.2969 19.4423 42.3302 19.2789 42.3948 19.1268C42.4594 18.9748 42.554 18.8369 42.6731 18.7215C42.7921 18.606 42.9333 18.5153 43.0883 18.4545C43.2433 18.3937 43.4089 18.3642 43.5756 18.3676V6.20641C43.5756 5.44895 43.2716 4.72251 42.7303 4.18691C42.1891 3.6513 41.4551 3.3504 40.6897 3.3504V3.35093ZM25.01 20.4828C24.8049 20.6857 24.5351 20.8119 24.2464 20.8399C23.9578 20.868 23.6683 20.7961 23.4273 20.6366C23.1862 20.4771 23.0085 20.2398 22.9244 19.9651C22.8403 19.6904 22.8551 19.3954 22.9661 19.1303C23.0772 18.8652 23.2777 18.6464 23.5335 18.5112C23.7893 18.376 24.0846 18.3328 24.369 18.3889C24.6534 18.445 24.9093 18.5969 25.0932 18.8189C25.2771 19.0408 25.3775 19.3189 25.3774 19.6059C25.3776 19.7688 25.3452 19.9302 25.2821 20.0806C25.2191 20.2311 25.1266 20.3678 25.01 20.4828ZM28.2521 20.4828C28.047 20.6861 27.777 20.8126 27.4881 20.8409C27.1993 20.8693 26.9094 20.7976 26.668 20.6381C26.4265 20.4785 26.2485 20.2411 26.1641 19.9662C26.0798 19.6913 26.0944 19.396 26.2054 19.1306C26.3165 18.8652 26.5171 18.6461 26.7731 18.5106C27.0291 18.3752 27.3246 18.3318 27.6093 18.3879C27.894 18.444 28.1503 18.596 28.3344 18.8181C28.5185 19.0402 28.6191 19.3186 28.619 19.6059C28.6192 19.7688 28.587 19.9301 28.524 20.0806C28.461 20.2311 28.3687 20.3678 28.2521 20.4828ZM29.7211 20.4828C29.5167 20.2799 29.3896 20.0132 29.3616 19.728C29.3335 19.4428 29.4062 19.1569 29.5673 18.9188C29.7284 18.6807 29.9678 18.5052 30.2449 18.4223C30.522 18.3393 30.8196 18.3539 31.0871 18.4637C31.3545 18.5734 31.5752 18.7715 31.7116 19.0242C31.8481 19.2769 31.8918 19.5686 31.8353 19.8496C31.7788 20.1307 31.6257 20.3836 31.402 20.5654C31.1782 20.7473 30.8977 20.8467 30.6082 20.8469C30.4433 20.8472 30.28 20.8151 30.1276 20.7526C29.9753 20.6901 29.8369 20.5984 29.7206 20.4828H29.7211ZM34.7364 20.4828C34.5313 20.6857 34.2614 20.8119 33.9728 20.8399C33.6842 20.868 33.3947 20.7961 33.1536 20.6366C32.9126 20.4771 32.7348 20.2398 32.6508 19.9651C32.5667 19.6904 32.5814 19.3954 32.6925 19.1303C32.8035 18.8652 33.0041 18.6464 33.2599 18.5112C33.5157 18.376 33.8109 18.3328 34.0953 18.3889C34.3797 18.445 34.6357 18.5969 34.8195 18.8189C35.0034 19.0408 35.1039 19.3189 35.1037 19.6059C35.104 19.7688 35.0717 19.9302 35.0086 20.0807C34.9456 20.2312 34.853 20.3678 34.7364 20.4828ZM37.9785 20.4828C37.7734 20.6861 37.5033 20.8126 37.2145 20.8409C36.9256 20.8693 36.6358 20.7976 36.3943 20.6381C36.1529 20.4785 35.9748 20.2411 35.8905 19.9662C35.8061 19.6913 35.8207 19.396 35.9318 19.1306C36.0428 18.8652 36.2434 18.6461 36.4994 18.5106C36.7554 18.3752 37.051 18.3318 37.3357 18.3879C37.6204 18.444 37.8766 18.596 38.0607 18.8181C38.2448 19.0402 38.3454 19.3186 38.3453 19.6059C38.3455 19.7688 38.3132 19.9302 38.2501 20.0807C38.1871 20.2311 38.0946 20.3678 37.978 20.4828H37.9785ZM41.2211 20.4828C41.0161 20.6859 40.7462 20.8124 40.4574 20.8407C40.1687 20.8689 39.879 20.7972 39.6377 20.6378C39.3964 20.4783 39.2184 20.241 39.1342 19.9662C39.0499 19.6915 39.0645 19.3963 39.1754 19.131C39.2864 18.8657 39.4869 18.6467 39.7428 18.5113C39.9987 18.376 40.2941 18.3326 40.5786 18.3886C40.8632 18.4446 41.1194 18.5966 41.3034 18.8185C41.4874 19.0405 41.588 19.3188 41.588 19.6059C41.5881 19.7688 41.5557 19.9301 41.4926 20.0806C41.4296 20.2311 41.3372 20.3678 41.2206 20.4828H41.2211Z" fill="#FFB300"/>
<path d="M40.6924 5.00537H23.7661C23.4445 5.00593 23.1362 5.13266 22.9088 5.35779C22.6814 5.58293 22.5535 5.88809 22.5531 6.20641V39.03C23.0252 39.0626 23.5016 39.0789 23.9822 39.0789C24.5899 39.0789 25.1916 39.053 25.7872 39.0011C26.5451 38.9357 27.2987 38.8285 28.0445 38.6801C28.6221 38.5652 29.1906 38.4265 29.7498 38.264C30.5175 38.0418 31.2713 37.7748 32.0071 37.4644C36.2053 35.6885 39.687 32.5804 41.9033 28.63V6.20641C41.9029 5.888 41.7749 5.58276 41.5474 5.35761C41.3199 5.13246 41.0114 5.00579 40.6897 5.00537H40.6924ZM25.01 20.4828C24.8049 20.6857 24.535 20.8119 24.2464 20.8399C23.9578 20.868 23.6683 20.7961 23.4273 20.6366C23.1862 20.4771 23.0085 20.2398 22.9244 19.9651C22.8403 19.6904 22.855 19.3954 22.9661 19.1303C23.0772 18.8652 23.2777 18.6464 23.5335 18.5112C23.7893 18.376 24.0845 18.3328 24.3689 18.3889C24.6533 18.445 24.9093 18.5969 25.0932 18.8189C25.2771 19.0408 25.3775 19.3189 25.3774 19.6059C25.3775 19.7688 25.3452 19.9301 25.2821 20.0806C25.2191 20.2311 25.1266 20.3678 25.01 20.4828ZM28.2521 20.4828C28.047 20.6861 27.777 20.8126 27.4881 20.8409C27.1992 20.8693 26.9094 20.7976 26.668 20.638C26.4265 20.4785 26.2485 20.2411 26.1641 19.9662C26.0798 19.6913 26.0944 19.396 26.2054 19.1306C26.3165 18.8652 26.5171 18.6461 26.7731 18.5106C27.0291 18.3752 27.3246 18.3318 27.6093 18.3879C27.894 18.4439 28.1503 18.596 28.3344 18.8181C28.5185 19.0402 28.6191 19.3186 28.619 19.6059C28.6192 19.7688 28.587 19.9301 28.524 20.0806C28.461 20.2311 28.3686 20.3678 28.2521 20.4828ZM29.7211 20.4828C29.5167 20.2799 29.3896 20.0132 29.3616 19.728C29.3335 19.4428 29.4062 19.1569 29.5673 18.9188C29.7284 18.6807 29.9678 18.5052 30.2449 18.4222C30.522 18.3393 30.8196 18.3539 31.0871 18.4637C31.3545 18.5734 31.5752 18.7715 31.7116 19.0242C31.8481 19.2769 31.8918 19.5686 31.8353 19.8496C31.7788 20.1306 31.6257 20.3836 31.4019 20.5654C31.1782 20.7473 30.8977 20.8467 30.6082 20.8469C30.4434 20.8471 30.2801 20.815 30.1279 20.7525C29.9756 20.69 29.8374 20.5984 29.7211 20.4828ZM34.7364 20.4828C34.5312 20.6857 34.2614 20.8119 33.9728 20.8399C33.6842 20.868 33.3947 20.7961 33.1536 20.6366C32.9125 20.4771 32.7348 20.2398 32.6507 19.9651C32.5667 19.6904 32.5814 19.3954 32.6925 19.1303C32.8035 18.8652 33.004 18.6464 33.2598 18.5112C33.5156 18.376 33.8109 18.3328 34.0953 18.3889C34.3797 18.445 34.6356 18.5969 34.8195 18.8189C35.0034 19.0408 35.1039 19.3189 35.1037 19.6059C35.104 19.7688 35.0717 19.9302 35.0086 20.0807C34.9455 20.2312 34.853 20.3678 34.7364 20.4828ZM37.9785 20.4828C37.7733 20.6861 37.5033 20.8126 37.2145 20.8409C36.9256 20.8693 36.6357 20.7976 36.3943 20.638C36.1529 20.4785 35.9748 20.2411 35.8905 19.9662C35.8061 19.6913 35.8207 19.396 35.9318 19.1306C36.0428 18.8652 36.2434 18.6461 36.4994 18.5106C36.7554 18.3752 37.051 18.3318 37.3357 18.3879C37.6204 18.4439 37.8766 18.596 38.0607 18.8181C38.2448 19.0402 38.3454 19.3186 38.3453 19.6059C38.3456 19.7688 38.3133 19.9301 38.2503 20.0806C38.1874 20.2311 38.095 20.3678 37.9785 20.4828ZM41.2211 20.4828C41.0161 20.6859 40.7462 20.8124 40.4574 20.8407C40.1687 20.8689 39.879 20.7972 39.6377 20.6378C39.3964 20.4783 39.2184 20.241 39.1341 19.9662C39.0498 19.6915 39.0644 19.3963 39.1754 19.131C39.2864 18.8657 39.4869 18.6467 39.7428 18.5113C39.9987 18.376 40.2941 18.3326 40.5786 18.3886C40.8632 18.4446 41.1193 18.5966 41.3034 18.8185C41.4874 19.0405 41.588 19.3188 41.588 19.6059C41.5881 19.7688 41.5558 19.9301 41.4929 20.0805C41.4299 20.231 41.3376 20.3677 41.2211 20.4828Z" fill="#F5D73D"/>
<path d="M27.0921 9.57886C27.0921 9.40233 27.2817 9.31616 27.4712 9.31616H29.4068C29.591 9.31616 29.6691 9.5095 29.6691 9.68393C29.6691 9.88831 29.574 10.0648 29.4068 10.0648H27.9612V10.9979H28.8032C28.9704 10.9979 29.0654 11.1555 29.0654 11.3347C29.0654 11.4839 28.9874 11.6604 28.8032 11.6604H27.9612V13.0848C27.9612 13.2613 27.7435 13.3475 27.5264 13.3475C27.3093 13.3475 27.0916 13.2592 27.0916 13.0848L27.0921 9.57886Z" fill="#F09942"/>
<path d="M30.2992 9.57309C30.2989 9.53863 30.3055 9.50446 30.3187 9.4726C30.332 9.44074 30.3516 9.41185 30.3764 9.38763C30.4011 9.36342 30.4306 9.34438 30.4629 9.33165C30.4953 9.31892 30.5299 9.31276 30.5647 9.31354H31.7193C32.4838 9.31354 33.0917 9.59515 33.0917 10.4951C33.1168 10.729 33.0646 10.9647 32.9429 11.1667C32.8213 11.3688 32.6367 11.5263 32.4169 11.6158L33.0975 12.8358C33.1163 12.8655 33.1259 12.9 33.1251 12.935C33.0989 13.06 33.0305 13.1724 32.9311 13.2537C32.8317 13.3349 32.7073 13.3803 32.5783 13.3822C32.5215 13.3851 32.465 13.3718 32.4156 13.3439C32.3661 13.3159 32.3259 13.2745 32.2996 13.2245L31.5351 11.7566H31.1672V13.0869C31.1672 13.2634 30.9496 13.3496 30.7319 13.3496C30.5142 13.3496 30.2971 13.2613 30.2971 13.0869L30.2992 9.57309ZM31.1694 10.0643V11.0909H31.7215C32.0342 11.0909 32.2237 10.9638 32.2237 10.5776C32.2237 10.1915 32.0342 10.0638 31.7215 10.0638H31.1694V10.0643Z" fill="#F09942"/>
<path d="M34.7618 10.9969H35.5985C35.7657 10.9969 35.8608 11.1545 35.8608 11.3337C35.8608 11.4829 35.7827 11.6594 35.5985 11.6594H34.7618V12.5967H36.2563C36.4241 12.5967 36.5185 12.7732 36.5185 12.9776C36.5185 13.1541 36.4405 13.3454 36.2563 13.3454H34.2708C34.0813 13.3454 33.8912 13.2571 33.8912 13.0827V9.5773C33.8912 9.40077 34.0807 9.31461 34.2708 9.31461H36.2563C36.4405 9.31461 36.5185 9.50743 36.5185 9.68238C36.5185 9.88676 36.4241 10.0633 36.2563 10.0633H34.7618V10.9969Z" fill="#F09942"/>
<path d="M38.1027 10.9969H38.9394C39.1071 10.9969 39.2016 11.1545 39.2016 11.3337C39.2016 11.4829 39.1236 11.6594 38.9394 11.6594H38.1027V12.5967H39.5977C39.7649 12.5967 39.8599 12.7732 39.8599 12.9776C39.8599 13.1541 39.7819 13.3454 39.5977 13.3454H37.6122C37.4226 13.3454 37.2331 13.2571 37.2331 13.0827V9.5773C37.2331 9.40077 37.4226 9.31461 37.6122 9.31461H39.5977C39.7819 9.31461 39.8599 9.50743 39.8599 9.68238C39.8599 9.88676 39.7654 10.0633 39.5977 10.0633H38.1027V10.9969Z" fill="#F09942"/>
<path d="M28.0451 24.0733V38.6791C27.2993 38.8275 26.5457 38.9347 25.7878 39.0001V24.0733H28.0451Z" fill="#F09942"/>
<path d="M32.0071 32.387V37.4644C31.2713 37.7748 30.5175 38.0418 29.7498 38.264V32.387H32.0071Z" fill="#F09942"/>
<path d="M26.1461 15.2956C26.3714 15.1152 26.6526 15.0168 26.9424 15.0172V2.85601C26.9424 2.09855 26.6384 1.37211 26.0972 0.836506C25.556 0.3009 24.8219 0 24.0565 0H7.13192C6.36671 0.000278616 5.63295 0.301302 5.09197 0.836878C4.55099 1.37245 4.24709 2.09873 4.24709 2.85601V15.0177C4.57923 15.0177 4.89777 15.1483 5.13264 15.3807C5.3675 15.6131 5.49944 15.9284 5.49944 16.2571C5.49944 16.5858 5.3675 16.901 5.13264 17.1335C4.89777 17.3659 4.57923 17.4965 4.24709 17.4965V24.2456C5.30515 28.0063 7.4375 31.3849 10.3881 33.9757C13.3388 36.5666 16.9823 38.2595 20.8813 38.8514C21.4313 38.9341 21.9886 38.9947 22.5531 39.0332C23.0252 39.0658 23.5018 39.0821 23.9828 39.0821C24.3515 39.0821 24.718 39.0724 25.0822 39.0532C25.3179 39.0406 25.5536 39.0243 25.7878 39.0048C26.1626 38.9723 26.5342 38.93 26.9026 38.8782C26.9283 38.7249 26.9411 38.5697 26.9408 38.4143V17.4965C26.6823 17.4965 26.43 17.4174 26.2186 17.2701C26.0071 17.1228 25.8469 16.9144 25.7597 16.6735C25.6725 16.4326 25.6627 16.1709 25.7316 15.9243C25.8005 15.6776 25.9447 15.4581 26.1445 15.2956H26.1461ZM8.37578 17.1345C8.17066 17.3378 7.90065 17.4643 7.61177 17.4927C7.3229 17.521 7.03305 17.4493 6.79162 17.2898C6.55019 17.1302 6.37213 16.8928 6.28778 16.6179C6.20344 16.343 6.21803 16.0477 6.32907 15.7823C6.44011 15.5169 6.64073 15.2978 6.89674 15.1623C7.15274 15.0269 7.44828 14.9835 7.73298 15.0396C8.01768 15.0957 8.27393 15.2477 8.45803 15.4698C8.64214 15.6919 8.74272 15.9703 8.74262 16.2576C8.74274 16.4205 8.7104 16.5817 8.64745 16.7322C8.5845 16.8827 8.49219 17.0194 8.37578 17.1345ZM11.6174 17.1345C11.4122 17.3375 11.1422 17.4638 10.8535 17.4919C10.5647 17.52 10.2751 17.4481 10.0339 17.2886C9.79269 17.129 9.61487 16.8916 9.53073 16.6168C9.44659 16.342 9.46133 16.0468 9.57246 15.7816C9.68358 15.5164 9.8842 15.2975 10.1401 15.1622C10.3961 15.027 10.6915 14.9837 10.976 15.0399C11.2605 15.096 11.5166 15.2481 11.7005 15.4701C11.8845 15.6922 11.9849 15.9705 11.9847 16.2576C11.9849 16.4205 11.9525 16.5819 11.8895 16.7323C11.8264 16.8828 11.734 17.0195 11.6174 17.1345ZM14.8595 17.1345C14.6544 17.337 14.3847 17.4628 14.0964 17.4906C13.808 17.5184 13.5189 17.4463 13.2782 17.2868C13.0375 17.1273 12.8601 16.8901 12.7763 16.6157C12.6924 16.3412 12.7073 16.0465 12.8184 15.7817C12.9295 15.517 13.1299 15.2985 13.3855 15.1635C13.6411 15.0286 13.9361 14.9855 14.2202 15.0416C14.5043 15.0977 14.7599 15.2496 14.9436 15.4713C15.1272 15.693 15.2275 15.9709 15.2274 16.2576C15.2276 16.4206 15.1952 16.582 15.132 16.7325C15.0689 16.8829 14.9762 17.0196 14.8595 17.1345ZM18.1021 17.1345C17.8968 17.3374 17.6268 17.4637 17.338 17.4917C17.0492 17.5197 16.7595 17.4478 16.5183 17.2882C16.2771 17.1286 16.0992 16.8912 16.015 16.6164C15.9308 16.3416 15.9455 16.0464 16.0566 15.781C16.1676 15.5157 16.3682 15.2967 16.6241 15.1613C16.88 15.0259 17.1754 14.9825 17.46 15.0385C17.7446 15.0944 18.0008 15.2463 18.185 15.4682C18.3691 15.6901 18.4699 15.9683 18.47 16.2555C18.4702 16.4184 18.4379 16.5797 18.375 16.7302C18.312 16.8806 18.2197 17.0173 18.1032 17.1324L18.1021 17.1345ZM21.3437 17.1345C21.1392 17.3381 20.8697 17.4652 20.581 17.4942C20.2924 17.5231 20.0026 17.4522 19.7609 17.2934C19.5193 17.1346 19.3407 16.8978 19.2556 16.6233C19.1706 16.3489 19.1843 16.0537 19.2945 15.7881C19.4047 15.5226 19.6045 15.303 19.86 15.1669C20.1154 15.0308 20.4106 14.9865 20.6953 15.0416C20.98 15.0968 21.2365 15.2479 21.4213 15.4692C21.606 15.6905 21.7075 15.9684 21.7084 16.2555C21.709 16.4182 21.677 16.5795 21.6144 16.7299C21.5518 16.8804 21.4598 17.0172 21.3437 17.1324V17.1345ZM24.5864 17.1345C24.3812 17.3375 24.1112 17.4638 23.8225 17.4919C23.5337 17.52 23.2441 17.4481 23.0029 17.2886C22.7617 17.129 22.5839 16.8916 22.4997 16.6168C22.4156 16.342 22.4303 16.0468 22.5415 15.7816C22.6526 15.5164 22.8532 15.2975 23.1091 15.1622C23.3651 15.027 23.6605 14.9837 23.945 15.0399C24.2295 15.096 24.4856 15.2481 24.6695 15.4701C24.8535 15.6922 24.9539 15.9705 24.9537 16.2576C24.9538 16.4205 24.9214 16.5818 24.8584 16.7323C24.7954 16.8828 24.7029 17.0195 24.5864 17.1345Z" fill="#C62829"/>
<path d="M24.0555 1.65497H7.13193C6.81028 1.65552 6.50198 1.78226 6.27459 2.00739C6.0472 2.23252 5.91927 2.53769 5.91885 2.85601V28.3704C7.42022 31.1462 9.55383 33.5379 12.1508 35.3564C14.7478 37.1749 17.7368 38.3702 20.8813 38.8477C21.4313 38.9304 21.9886 38.991 22.5531 39.0295C23.0252 39.0621 23.5016 39.0784 23.9822 39.0784C24.351 39.0784 24.7175 39.0687 25.0817 39.0495C25.2042 38.8583 25.2692 38.6365 25.2691 38.4101V2.85863C25.2687 2.54023 25.1407 2.23498 24.9132 2.00983C24.6857 1.78469 24.3772 1.65801 24.0555 1.6576V1.65497ZM8.37579 17.1324C8.17066 17.3357 7.90066 17.4622 7.61178 17.4905C7.32291 17.5189 7.03306 17.4472 6.79163 17.2876C6.5502 17.1281 6.37214 16.8907 6.28779 16.6158C6.20345 16.3409 6.21804 16.0456 6.32908 15.7802C6.44012 15.5148 6.64074 15.2957 6.89675 15.1602C7.15275 15.0248 7.44829 14.9814 7.73299 15.0375C8.01769 15.0935 8.27394 15.2456 8.45804 15.4677C8.64215 15.6898 8.74273 15.9682 8.74263 16.2555C8.74275 16.4184 8.71041 16.5796 8.64746 16.7301C8.58451 16.8806 8.49219 17.0173 8.37579 17.1324ZM11.6174 17.1324C11.4122 17.3354 11.1422 17.4617 10.8535 17.4898C10.5648 17.5179 10.2751 17.446 10.0339 17.2865C9.7927 17.1269 9.61488 16.8895 9.53074 16.6147C9.4466 16.3399 9.46134 16.0447 9.57247 15.7795C9.68359 15.5143 9.88421 15.2954 10.1401 15.1601C10.3961 15.0249 10.6915 14.9816 10.976 15.0378C11.2605 15.0939 11.5166 15.246 11.7005 15.468C11.8845 15.6901 11.9849 15.9684 11.9847 16.2555C11.9849 16.4184 11.9525 16.5797 11.8895 16.7302C11.8265 16.8807 11.734 17.0174 11.6174 17.1324ZM14.8595 17.1324C14.6544 17.3349 14.3847 17.4607 14.0964 17.4885C13.808 17.5163 13.5189 17.4442 13.2782 17.2847C13.0375 17.1252 12.8601 16.888 12.7763 16.6136C12.6924 16.3391 12.7073 16.0444 12.8184 15.7796C12.9295 15.5149 13.1299 15.2964 13.3855 15.1614C13.6411 15.0265 13.9361 14.9834 14.2202 15.0395C14.5043 15.0956 14.7599 15.2475 14.9436 15.4692C15.1272 15.6909 15.2275 15.9688 15.2274 16.2555C15.2276 16.4185 15.1952 16.5798 15.132 16.7303C15.0689 16.8808 14.9763 17.0175 14.8595 17.1324ZM18.1021 17.1324C17.897 17.3357 17.627 17.4622 17.3381 17.4905C17.0493 17.5189 16.7594 17.4472 16.518 17.2876C16.2766 17.1281 16.0985 16.8907 16.0141 16.6158C15.9298 16.3409 15.9444 16.0456 16.0554 15.7802C16.1665 15.5148 16.3671 15.2957 16.6231 15.1602C16.8791 15.0248 17.1746 14.9814 17.4593 15.0375C17.744 15.0935 18.0003 15.2456 18.1844 15.4677C18.3685 15.6898 18.4691 15.9682 18.469 16.2555C18.4692 16.4184 18.4369 16.5797 18.3739 16.7302C18.311 16.8806 18.2186 17.0173 18.1021 17.1324ZM21.3437 17.1324C21.1385 17.3354 20.8686 17.4617 20.5798 17.4898C20.2911 17.5179 20.0015 17.446 19.7603 17.2865C19.5191 17.1269 19.3412 16.8895 19.2571 16.6147C19.1729 16.3399 19.1877 16.0447 19.2988 15.7795C19.4099 15.5143 19.6106 15.2954 19.8665 15.1601C20.1224 15.0249 20.4178 14.9816 20.7024 15.0378C20.9869 15.0939 21.2429 15.246 21.4269 15.468C21.6108 15.6901 21.7113 15.9684 21.7111 16.2555C21.7113 16.4184 21.6789 16.5797 21.6158 16.7302C21.5528 16.8807 21.4603 17.0174 21.3437 17.1324ZM24.5864 17.1324C24.3812 17.3354 24.1112 17.4617 23.8225 17.4898C23.5338 17.5179 23.2441 17.446 23.0029 17.2865C22.7617 17.1269 22.5839 16.8895 22.4997 16.6147C22.4156 16.3399 22.4303 16.0447 22.5415 15.7795C22.6526 15.5143 22.8532 15.2954 23.1091 15.1601C23.3651 15.0249 23.6605 14.9816 23.945 15.0378C24.2295 15.0939 24.4856 15.246 24.6695 15.468C24.8535 15.6901 24.9539 15.9684 24.9537 16.2555C24.9539 16.4184 24.9215 16.5797 24.8584 16.7302C24.7954 16.8807 24.7029 17.0174 24.5864 17.1324Z" fill="#E64C4D"/>
<path d="M11.8504 5.95842C11.9208 5.95715 11.9905 5.9717 12.0543 6.00098L19.7787 9.73124C19.8623 9.77964 19.9311 9.84954 19.9779 9.93353C20.0246 10.0175 20.0475 10.1125 20.0441 10.2083C20.0462 10.361 19.988 10.5084 19.8819 10.6193C19.7758 10.7302 19.6302 10.7957 19.4761 10.802C19.4052 10.7996 19.3357 10.7817 19.2727 10.7494L11.5484 7.02811C11.4647 6.98798 11.3949 6.92429 11.3476 6.84503C11.3004 6.76576 11.2779 6.67446 11.2829 6.58258C11.278 6.4262 11.3342 6.27398 11.44 6.15768C11.5457 6.04138 11.6928 5.96999 11.8504 5.95842ZM14.6896 12.4254H13.1686C12.1068 12.4254 11.7225 11.7361 11.7225 10.8351C11.7225 9.94454 12.1079 9.24472 13.1686 9.24472H14.6901C15.7519 9.24472 16.1363 9.94454 16.1363 10.8351C16.1363 11.7366 15.7503 12.4254 14.6896 12.4254ZM13.1681 10.305C13.0969 10.2976 13.0248 10.3064 12.9576 10.3307C12.8903 10.3551 12.8296 10.3943 12.78 10.4455C12.7304 10.4966 12.6933 10.5583 12.6715 10.6259C12.6497 10.6934 12.6438 10.7649 12.6542 10.8351C12.644 10.9047 12.6502 10.9758 12.6723 11.0427C12.6944 11.1096 12.7318 11.1705 12.7815 11.2208C12.8313 11.2711 12.8921 11.3093 12.9593 11.3325C13.0264 11.3557 13.098 11.3633 13.1686 11.3547H14.6901C14.7607 11.3633 14.8324 11.3557 14.8995 11.3325C14.9666 11.3093 15.0274 11.2711 15.0772 11.2208C15.127 11.1705 15.1644 11.1096 15.1864 11.0427C15.2085 10.9758 15.2147 10.9047 15.2046 10.8351C15.215 10.7649 15.2091 10.6933 15.1873 10.6257C15.1654 10.5582 15.1283 10.4964 15.0786 10.4453C15.029 10.3941 14.9681 10.3549 14.9008 10.3305C14.8335 10.3062 14.7614 10.2975 14.6901 10.305H13.1681ZM18.1393 7.55875H16.6178C15.556 7.55875 15.1716 6.86944 15.1716 5.9684C15.1716 5.07524 15.5571 4.37805 16.6178 4.37805H18.1393C19.2011 4.37805 19.5854 5.07787 19.5854 5.9684C19.587 6.86997 19.2 7.55928 18.1393 7.55928V7.55875ZM16.6178 5.43828C16.5465 5.43079 16.4744 5.43954 16.4071 5.46386C16.3398 5.48818 16.2789 5.52742 16.2293 5.57859C16.1797 5.62975 16.1425 5.69148 16.1207 5.75904C16.0988 5.82661 16.0929 5.89822 16.1034 5.9684C16.0931 6.03808 16.0992 6.10916 16.1212 6.17611C16.1433 6.24306 16.1807 6.30406 16.2305 6.35436C16.2803 6.40466 16.3411 6.44289 16.4083 6.46607C16.4755 6.48926 16.5472 6.49676 16.6178 6.48801H18.1393C18.2099 6.49667 18.2815 6.4891 18.3486 6.46588C18.4157 6.44265 18.4765 6.40441 18.5262 6.35413C18.576 6.30384 18.6133 6.24287 18.6353 6.17597C18.6573 6.10906 18.6635 6.03803 18.6532 5.9684C18.6636 5.89827 18.6577 5.82671 18.6359 5.75919C18.6141 5.69167 18.577 5.62997 18.5274 5.57882C18.4778 5.52767 18.4171 5.48841 18.3498 5.46405C18.2825 5.4397 18.2105 5.43088 18.1393 5.43828H16.6178Z" fill="white"/>
<path d="M11.4103 20.7229V34.8122C10.6085 34.1944 9.85415 33.5185 9.15353 32.79V20.7229H11.4103Z" fill="white"/>
<path d="M15.3723 29.0366V37.2059C14.595 36.8489 13.8412 36.4438 13.1155 35.9928V29.0366H15.3723Z" fill="white"/>
<path d="M47.9703 22.3353V45.1077C47.9682 45.8743 47.6595 46.6088 47.1118 47.1508C46.564 47.6927 45.8218 47.9981 45.0472 48H2.91509C2.14136 47.9978 1.40008 47.6921 0.853665 47.15C0.307252 46.6078 0.000277733 45.8734 0 45.1077V22.3353L23.9849 36.3306L47.9703 22.3353Z" fill="#FFA666"/>
<path d="M47.1596 47.0937L31.722 31.8159L23.9849 36.3306L16.2451 31.8123L0.809067 47.0932C1.07939 47.3788 1.40594 47.6066 1.7686 47.7625C2.13125 47.9185 2.52233 47.9993 2.91774 48H45.0499C45.4453 47.9988 45.8364 47.9178 46.1991 47.762C46.5619 47.6062 46.8887 47.3788 47.1596 47.0937Z" fill="#F58A3D"/>
</g>
<defs>
<clipPath id="clip0">
<rect width="48" height="48" fill="white"/>
</clipPath>
</defs>
</svg>
